%YAML 1.1
%TAG !u! tag:unity3d.com,2011:
--- !u!114 &11400000
MonoBehaviour:
  m_ObjectHideFlags: 0
  m_CorrespondingSourceObject: {fileID: 0}
  m_PrefabInstance: {fileID: 0}
  m_PrefabAsset: {fileID: 0}
  m_GameObject: {fileID: 0}
  m_Enabled: 1
  m_EditorHideFlags: 0
  m_Script: {fileID: 11500000, guid: 748b954757df5314db4ff165d359bc0a, type: 3}
  m_Name: Bain de bouche
  m_EditorClassIdentifier: 
  ItemName: Bain de bouche
  ItemDescription: 
  ItemIcon: {fileID: 21300000, guid: 6676aa71cccabca40acddb3e78234594, type: 3}
  Price: 5
  Article: un
