%YAML 1.1
%TAG !u! tag:unity3d.com,2011:
--- !u!114 &11400000
MonoBehaviour:
  m_ObjectHideFlags: 0
  m_CorrespondingSourceObject: {fileID: 0}
  m_PrefabInstance: {fileID: 0}
  m_PrefabAsset: {fileID: 0}
  m_GameObject: {fileID: 0}
  m_Enabled: 1
  m_EditorHideFlags: 0
  m_Script: {fileID: 11500000, guid: 748b954757df5314db4ff165d359bc0a, type: 3}
  m_Name: "Enveloppe timbr\xE9e x 1"
  m_EditorClassIdentifier: 
  ItemName: "Enveloppe timbr\xE9e x 1"
  ItemDescription: 
  ItemIcon: {fileID: 21300000, guid: e406be31645a8e74b867fa34f4e74491, type: 3}
  Price: 0
  Article: une
