%YAML 1.1
%TAG !u! tag:unity3d.com,2011:
--- !u!114 &11400000
MonoBehaviour:
  m_ObjectHideFlags: 0
  m_CorrespondingSourceObject: {fileID: 0}
  m_PrefabInstance: {fileID: 0}
  m_PrefabAsset: {fileID: 0}
  m_GameObject: {fileID: 0}
  m_Enabled: 1
  m_EditorHideFlags: 0
  m_Script: {fileID: 11500000, guid: 748b954757df5314db4ff165d359bc0a, type: 3}
  m_Name: Vitamines
  m_EditorClassIdentifier: 
  ItemName: Vitamines
  ItemDescription: 
  ItemIcon: {fileID: 21300000, guid: de1f9d95c67037a41a13996b277932b2, type: 3}
  Price: 17.9
  Article: des
