%YAML 1.1
%TAG !u! tag:unity3d.com,2011:
--- !u!1001 &126406230912818189
PrefabInstance:
  m_ObjectHideFlags: 0
  serializedVersion: 2
  m_Modification:
    m_TransformParent: {fileID: 0}
    m_Modifications:
    - target: {fileID: 4652664512285467521, guid: 8a4a54f11db10f548b01432c1a121f45,
        type: 3}
      propertyPath: m_Name
      value: NavigationIndicationCylinder Variant
      objectReference: {fileID: 0}
    - target: {fileID: 4652664512285467521, guid: 8a4a54f11db10f548b01432c1a121f45,
        type: 3}
      propertyPath: m_Layer
      value: 13
      objectReference: {fileID: 0}
    - target: {fileID: 4652664512285048737, guid: 8a4a54f11db10f548b01432c1a121f45,
        type: 3}
      propertyPath: m_LocalPosition.x
      value: 14.33
      objectReference: {fileID: 0}
    - target: {fileID: 4652664512285048737, guid: 8a4a54f11db10f548b01432c1a121f45,
        type: 3}
      propertyPath: m_LocalPosition.y
      value: 596.94403
      objectReference: {fileID: 0}
    - target: {fileID: 4652664512285048737, guid: 8a4a54f11db10f548b01432c1a121f45,
        type: 3}
      propertyPath: m_LocalPosition.z
      value: -196.66
      objectReference: {fileID: 0}
    - target: {fileID: 4652664512285048737, guid: 8a4a54f11db10f548b01432c1a121f45,
        type: 3}
      propertyPath: m_LocalRotation.x
      value: -0
      objectReference: {fileID: 0}
    - target: {fileID: 4652664512285048737, guid: 8a4a54f11db10f548b01432c1a121f45,
        type: 3}
      propertyPath: m_LocalRotation.y
      value: -0
      objectReference: {fileID: 0}
    - target: {fileID: 4652664512285048737, guid: 8a4a54f11db10f548b01432c1a121f45,
        type: 3}
      propertyPath: m_LocalRotation.z
      value: -0
      objectReference: {fileID: 0}
    - target: {fileID: 4652664512285048737, guid: 8a4a54f11db10f548b01432c1a121f45,
        type: 3}
      propertyPath: m_LocalRotation.w
      value: 1
      objectReference: {fileID: 0}
    - target: {fileID: 4652664512285048737, guid: 8a4a54f11db10f548b01432c1a121f45,
        type: 3}
      propertyPath: m_RootOrder
      value: 0
      objectReference: {fileID: 0}
    - target: {fileID: 4652664512285048737, guid: 8a4a54f11db10f548b01432c1a121f45,
        type: 3}
      propertyPath: m_LocalEulerAnglesHint.x
      value: 0
      objectReference: {fileID: 0}
    - target: {fileID: 4652664512285048737, guid: 8a4a54f11db10f548b01432c1a121f45,
        type: 3}
      propertyPath: m_LocalEulerAnglesHint.y
      value: 0
      objectReference: {fileID: 0}
    - target: {fileID: 4652664512285048737, guid: 8a4a54f11db10f548b01432c1a121f45,
        type: 3}
      propertyPath: m_LocalEulerAnglesHint.z
      value: 0
      objectReference: {fileID: 0}
    - target: {fileID: 4652664512285048737, guid: 8a4a54f11db10f548b01432c1a121f45,
        type: 3}
      propertyPath: m_LocalScale.x
      value: 50
      objectReference: {fileID: 0}
    - target: {fileID: 4652664512285048737, guid: 8a4a54f11db10f548b01432c1a121f45,
        type: 3}
      propertyPath: m_LocalScale.y
      value: 50
      objectReference: {fileID: 0}
    - target: {fileID: 4652664512285048737, guid: 8a4a54f11db10f548b01432c1a121f45,
        type: 3}
      propertyPath: m_LocalScale.z
      value: 50
      objectReference: {fileID: 0}
    m_RemovedComponents: []
  m_SourcePrefab: {fileID: 100100000, guid: 8a4a54f11db10f548b01432c1a121f45, type: 3}
