%YAML 1.1
%TAG !u! tag:unity3d.com,2011:
--- !u!114 &11400000
MonoBehaviour:
  m_ObjectHideFlags: 0
  m_CorrespondingSourceObject: {fileID: 0}
  m_PrefabInstance: {fileID: 0}
  m_PrefabAsset: {fileID: 0}
  m_GameObject: {fileID: 0}
  m_Enabled: 1
  m_EditorHideFlags: 0
  m_Script: {fileID: 11500000, guid: 90ecd965d406f3543bae26401ddd369f, type: 3}
  m_Name: SynchroTC_FrontEndSkin
  m_EditorClassIdentifier: 
  serializationData:
    SerializedFormat: 2
    SerializedBytes: 
    ReferencedUnityObjects: []
    SerializedBytesString: 
    Prefab: {fileID: 0}
    PrefabModificationsReferencedUnityObjects: []
    PrefabModifications: []
    SerializationNodes:
    - Name: uiColors
      Entry: 7
      Data: 0|System.Collections.Generic.Dictionary`2[[Keyveo.FrontEnd.UITag, Assembly-CSharp],[UnityEngine.Color,
        UnityEngine.CoreModule]], mscorlib
    - Name: comparer
      Entry: 7
      Data: 1|System.Collections.Generic.EqualityComparer`1+DefaultComparer[[Keyveo.FrontEnd.UITag,
        Assembly-CSharp]], mscorlib
    - Name: 
      Entry: 8
      Data: 
    - Name: 
      Entry: 12
      Data: 5
    - Name: 
      Entry: 7
      Data: 
    - Name: 
      Entry: 3
      Data: 0
    - Name: 
      Entry: 7
      Data: UnityEngine.Color, UnityEngine.CoreModule
    - Name: 
      Entry: 4
      Data: 0.968627453
    - Name: 
      Entry: 4
      Data: 0.9647059
    - Name: 
      Entry: 4
      Data: 0.9843137
    - Name: 
      Entry: 4
      Data: 1
    - Name: 
      Entry: 8
      Data: 
    - Name: 
      Entry: 8
      Data: 
    - Name: 
      Entry: 7
      Data: 
    - Name: 
      Entry: 3
      Data: 1
    - Name: 
      Entry: 7
      Data: UnityEngine.Color, UnityEngine.CoreModule
    - Name: 
      Entry: 4
      Data: 0.1792453
    - Name: 
      Entry: 4
      Data: 0.1792453
    - Name: 
      Entry: 4
      Data: 0.1792453
    - Name: 
      Entry: 4
      Data: 1
    - Name: 
      Entry: 8
      Data: 
    - Name: 
      Entry: 8
      Data: 
    - Name: 
      Entry: 7
      Data: 
    - Name: 
      Entry: 3
      Data: 3
    - Name: 
      Entry: 7
      Data: UnityEngine.Color, UnityEngine.CoreModule
    - Name: 
      Entry: 4
      Data: 0.184313729
    - Name: 
      Entry: 4
      Data: 0.6117647
    - Name: 
      Entry: 4
      Data: 0.5882353
    - Name: 
      Entry: 4
      Data: 1
    - Name: 
      Entry: 8
      Data: 
    - Name: 
      Entry: 8
      Data: 
    - Name: 
      Entry: 7
      Data: 
    - Name: 
      Entry: 3
      Data: 6
    - Name: 
      Entry: 7
      Data: UnityEngine.Color, UnityEngine.CoreModule
    - Name: 
      Entry: 4
      Data: 0.113725491
    - Name: 
      Entry: 4
      Data: 0.447058827
    - Name: 
      Entry: 4
      Data: 0.427450985
    - Name: 
      Entry: 4
      Data: 1
    - Name: 
      Entry: 8
      Data: 
    - Name: 
      Entry: 8
      Data: 
    - Name: 
      Entry: 7
      Data: 
    - Name: 
      Entry: 3
      Data: 7
    - Name: 
      Entry: 7
      Data: UnityEngine.Color, UnityEngine.CoreModule
    - Name: 
      Entry: 4
      Data: 0.227450982
    - Name: 
      Entry: 4
      Data: 0.7490196
    - Name: 
      Entry: 4
      Data: 0.7069559
    - Name: 
      Entry: 4
      Data: 1
    - Name: 
      Entry: 8
      Data: 
    - Name: 
      Entry: 8
      Data: 
    - Name: 
      Entry: 13
      Data: 
    - Name: 
      Entry: 8
      Data: 
    - Name: textColors
      Entry: 7
      Data: 2|System.Collections.Generic.Dictionary`2[[Keyveo.FrontEnd.TextTag, Assembly-CSharp],[UnityEngine.Color,
        UnityEngine.CoreModule]], mscorlib
    - Name: comparer
      Entry: 7
      Data: 3|System.Collections.Generic.EqualityComparer`1+DefaultComparer[[Keyveo.FrontEnd.TextTag,
        Assembly-CSharp]], mscorlib
    - Name: 
      Entry: 8
      Data: 
    - Name: 
      Entry: 12
      Data: 4
    - Name: 
      Entry: 7
      Data: 
    - Name: 
      Entry: 3
      Data: 0
    - Name: 
      Entry: 7
      Data: UnityEngine.Color, UnityEngine.CoreModule
    - Name: 
      Entry: 4
      Data: 0.184313729
    - Name: 
      Entry: 4
      Data: 0.6117647
    - Name: 
      Entry: 4
      Data: 0.5882353
    - Name: 
      Entry: 4
      Data: 1
    - Name: 
      Entry: 8
      Data: 
    - Name: 
      Entry: 8
      Data: 
    - Name: 
      Entry: 7
      Data: 
    - Name: 
      Entry: 3
      Data: 1
    - Name: 
      Entry: 7
      Data: UnityEngine.Color, UnityEngine.CoreModule
    - Name: 
      Entry: 4
      Data: 0.1792453
    - Name: 
      Entry: 4
      Data: 0.1792453
    - Name: 
      Entry: 4
      Data: 0.1792453
    - Name: 
      Entry: 4
      Data: 1
    - Name: 
      Entry: 8
      Data: 
    - Name: 
      Entry: 8
      Data: 
    - Name: 
      Entry: 7
      Data: 
    - Name: 
      Entry: 3
      Data: 2
    - Name: 
      Entry: 7
      Data: UnityEngine.Color, UnityEngine.CoreModule
    - Name: 
      Entry: 4
      Data: 0.968627453
    - Name: 
      Entry: 4
      Data: 0.9647059
    - Name: 
      Entry: 4
      Data: 0.9843137
    - Name: 
      Entry: 4
      Data: 1
    - Name: 
      Entry: 8
      Data: 
    - Name: 
      Entry: 8
      Data: 
    - Name: 
      Entry: 7
      Data: 
    - Name: 
      Entry: 3
      Data: 3
    - Name: 
      Entry: 7
      Data: UnityEngine.Color, UnityEngine.CoreModule
    - Name: 
      Entry: 4
      Data: 0.227450982
    - Name: 
      Entry: 4
      Data: 0.7490196
    - Name: 
      Entry: 4
      Data: 0.7069559
    - Name: 
      Entry: 4
      Data: 1
    - Name: 
      Entry: 8
      Data: 
    - Name: 
      Entry: 8
      Data: 
    - Name: 
      Entry: 13
      Data: 
    - Name: 
      Entry: 8
      Data: 
  font: {fileID: 11400000, guid: 93f0d8b99cbe5ca4d8cd5ce2e4355f2c, type: 2}
  font_noz: {fileID: 11400000, guid: 93f0d8b99cbe5ca4d8cd5ce2e4355f2c, type: 2}
  materialColors:
  - m_tag: 0
    m_color: {r: 0, g: 0.36111116, b: 1, a: 1}
  - m_tag: 1
    m_color: {r: 0, g: 1.3864839, b: 2.1185474, a: 1}
  - m_tag: 2
    m_color: {r: 0, g: 0.36130688, b: 1, a: 1}
