%YAML 1.1
%TAG !u! tag:unity3d.com,2011:
--- !u!1001 &7665566676165426806
PrefabInstance:
  m_ObjectHideFlags: 0
  serializedVersion: 2
  m_Modification:
    m_TransformParent: {fileID: 0}
    m_Modifications:
    - target: {fileID: 7272195214119756090, guid: bee9a4a6b9ccac44588999df6dc63174,
        type: 3}
      propertyPath: m_Name
      value: NotificationStraw
      objectReference: {fileID: 0}
    - target: {fileID: 1262354619094336749, guid: bee9a4a6b9ccac44588999df6dc63174,
        type: 3}
      propertyPath: m_LocalPosition.x
      value: 0
      objectReference: {fileID: 0}
    - target: {fileID: 1262354619094336749, guid: bee9a4a6b9ccac44588999df6dc63174,
        type: 3}
      propertyPath: m_LocalPosition.y
      value: 0
      objectReference: {fileID: 0}
    - target: {fileID: 1262354619094336749, guid: bee9a4a6b9ccac44588999df6dc63174,
        type: 3}
      propertyPath: m_LocalPosition.z
      value: 0.74999994
      objectReference: {fileID: 0}
    - target: {fileID: 1262354619094336749, guid: bee9a4a6b9ccac44588999df6dc63174,
        type: 3}
      propertyPath: m_LocalRotation.x
      value: 0
      objectReference: {fileID: 0}
    - target: {fileID: 1262354619094336749, guid: bee9a4a6b9ccac44588999df6dc63174,
        type: 3}
      propertyPath: m_LocalRotation.y
      value: 0
      objectReference: {fileID: 0}
    - target: {fileID: 1262354619094336749, guid: bee9a4a6b9ccac44588999df6dc63174,
        type: 3}
      propertyPath: m_LocalRotation.z
      value: 0
      objectReference: {fileID: 0}
    - target: {fileID: 1262354619094336749, guid: bee9a4a6b9ccac44588999df6dc63174,
        type: 3}
      propertyPath: m_LocalRotation.w
      value: 1
      objectReference: {fileID: 0}
    - target: {fileID: 1262354619094336749, guid: bee9a4a6b9ccac44588999df6dc63174,
        type: 3}
      propertyPath: m_RootOrder
      value: 0
      objectReference: {fileID: 0}
    - target: {fileID: 1262354619094336749, guid: bee9a4a6b9ccac44588999df6dc63174,
        type: 3}
      propertyPath: m_LocalEulerAnglesHint.x
      value: 0
      objectReference: {fileID: 0}
    - target: {fileID: 1262354619094336749, guid: bee9a4a6b9ccac44588999df6dc63174,
        type: 3}
      propertyPath: m_LocalEulerAnglesHint.y
      value: 0
      objectReference: {fileID: 0}
    - target: {fileID: 1262354619094336749, guid: bee9a4a6b9ccac44588999df6dc63174,
        type: 3}
      propertyPath: m_LocalEulerAnglesHint.z
      value: 0
      objectReference: {fileID: 0}
    - target: {fileID: 1262354619094336749, guid: bee9a4a6b9ccac44588999df6dc63174,
        type: 3}
      propertyPath: m_AnchoredPosition.x
      value: 50
      objectReference: {fileID: 0}
    - target: {fileID: 1262354619094336749, guid: bee9a4a6b9ccac44588999df6dc63174,
        type: 3}
      propertyPath: m_AnchoredPosition.y
      value: 0
      objectReference: {fileID: 0}
    - target: {fileID: 1262354619094336749, guid: bee9a4a6b9ccac44588999df6dc63174,
        type: 3}
      propertyPath: m_SizeDelta.x
      value: 620
      objectReference: {fileID: 0}
    - target: {fileID: 1262354619094336749, guid: bee9a4a6b9ccac44588999df6dc63174,
        type: 3}
      propertyPath: m_SizeDelta.y
      value: 0
      objectReference: {fileID: 0}
    - target: {fileID: 1262354619094336749, guid: bee9a4a6b9ccac44588999df6dc63174,
        type: 3}
      propertyPath: m_AnchorMin.x
      value: 0
      objectReference: {fileID: 0}
    - target: {fileID: 1262354619094336749, guid: bee9a4a6b9ccac44588999df6dc63174,
        type: 3}
      propertyPath: m_AnchorMin.y
      value: 0
      objectReference: {fileID: 0}
    - target: {fileID: 1262354619094336749, guid: bee9a4a6b9ccac44588999df6dc63174,
        type: 3}
      propertyPath: m_AnchorMax.x
      value: 0
      objectReference: {fileID: 0}
    - target: {fileID: 1262354619094336749, guid: bee9a4a6b9ccac44588999df6dc63174,
        type: 3}
      propertyPath: m_AnchorMax.y
      value: 0
      objectReference: {fileID: 0}
    - target: {fileID: 1262354619094336749, guid: bee9a4a6b9ccac44588999df6dc63174,
        type: 3}
      propertyPath: m_Pivot.x
      value: 0.5
      objectReference: {fileID: 0}
    - target: {fileID: 1262354619094336749, guid: bee9a4a6b9ccac44588999df6dc63174,
        type: 3}
      propertyPath: m_Pivot.y
      value: 0.5
      objectReference: {fileID: 0}
    - target: {fileID: 8546624523944783374, guid: bee9a4a6b9ccac44588999df6dc63174,
        type: 3}
      propertyPath: m_Material
      value: 
      objectReference: {fileID: 2100000, guid: 3e789509127671947bf9f93959e25796, type: 2}
    - target: {fileID: 5280266582563242664, guid: bee9a4a6b9ccac44588999df6dc63174,
        type: 3}
      propertyPath: m_AnchoredPosition.x
      value: 310
      objectReference: {fileID: 0}
    - target: {fileID: 5280266582563242664, guid: bee9a4a6b9ccac44588999df6dc63174,
        type: 3}
      propertyPath: m_AnchorMin.y
      value: 0
      objectReference: {fileID: 0}
    - target: {fileID: 5280266582563242664, guid: bee9a4a6b9ccac44588999df6dc63174,
        type: 3}
      propertyPath: m_AnchorMax.y
      value: 0
      objectReference: {fileID: 0}
    - target: {fileID: 5280266582563242664, guid: bee9a4a6b9ccac44588999df6dc63174,
        type: 3}
      propertyPath: m_AnchoredPosition.y
      value: 0
      objectReference: {fileID: 0}
    - target: {fileID: 5280266582563242664, guid: bee9a4a6b9ccac44588999df6dc63174,
        type: 3}
      propertyPath: m_SizeDelta.y
      value: 0
      objectReference: {fileID: 0}
    - target: {fileID: 4155561515964351206, guid: bee9a4a6b9ccac44588999df6dc63174,
        type: 3}
      propertyPath: m_AnchorMin.y
      value: 0
      objectReference: {fileID: 0}
    - target: {fileID: 4155561515964351206, guid: bee9a4a6b9ccac44588999df6dc63174,
        type: 3}
      propertyPath: m_AnchorMax.y
      value: 0
      objectReference: {fileID: 0}
    - target: {fileID: 4155561515964351206, guid: bee9a4a6b9ccac44588999df6dc63174,
        type: 3}
      propertyPath: m_AnchoredPosition.x
      value: 0
      objectReference: {fileID: 0}
    - target: {fileID: 4155561515964351206, guid: bee9a4a6b9ccac44588999df6dc63174,
        type: 3}
      propertyPath: m_AnchoredPosition.y
      value: 0
      objectReference: {fileID: 0}
    - target: {fileID: 4155561515964351206, guid: bee9a4a6b9ccac44588999df6dc63174,
        type: 3}
      propertyPath: m_SizeDelta.y
      value: 0
      objectReference: {fileID: 0}
    - target: {fileID: 4465677819039403295, guid: bee9a4a6b9ccac44588999df6dc63174,
        type: 3}
      propertyPath: m_havePropertiesChanged
      value: 0
      objectReference: {fileID: 0}
    - target: {fileID: 4465677819039403295, guid: bee9a4a6b9ccac44588999df6dc63174,
        type: 3}
      propertyPath: m_isInputParsingRequired
      value: 0
      objectReference: {fileID: 0}
    m_RemovedComponents: []
  m_SourcePrefab: {fileID: 100100000, guid: bee9a4a6b9ccac44588999df6dc63174, type: 3}
