%YAML 1.1
%TAG !u! tag:unity3d.com,2011:
--- !u!114 &11400000
MonoBehaviour:
  m_ObjectHideFlags: 0
  m_CorrespondingSourceObject: {fileID: 0}
  m_PrefabInstance: {fileID: 0}
  m_PrefabAsset: {fileID: 0}
  m_GameObject: {fileID: 0}
  m_Enabled: 1
  m_EditorHideFlags: 0
  m_Script: {fileID: 11500000, guid: 46d750b4f01be2c4498d8cae5137ddd8, type: 3}
  m_Name: _RefScenario
  m_EditorClassIdentifier: 
  m_description: 
  m_successMessage: 
  m_failMessage: 
  m_skipMessage: 
  m_isFirstReaching: 1
  m_results:
    state: 5
    reached: 0
    succeeded: 0
    failed: 0
    skipped: 0
  m_registeredComponent: {fileID: 0}
  objectives: []
