%YAML 1.1
%TAG !u! tag:unity3d.com,2011:
--- !u!114 &11400000
MonoBehaviour:
  m_ObjectHideFlags: 0
  m_CorrespondingSourceObject: {fileID: 0}
  m_PrefabInstance: {fileID: 0}
  m_PrefabAsset: {fileID: 0}
  m_GameObject: {fileID: 0}
  m_Enabled: 1
  m_EditorHideFlags: 0
  m_Script: {fileID: 11500000, guid: 90ecd965d406f3543bae26401ddd369f, type: 3}
  m_Name: DemoGREEN_FrontEndSkin
  m_EditorClassIdentifier: 
  serializationData:
    SerializedFormat: 2
    SerializedBytes: 
    ReferencedUnityObjects: []
    SerializedBytesString: 
    Prefab: {fileID: 0}
    PrefabModificationsReferencedUnityObjects: []
    PrefabModifications: []
    SerializationNodes:
    - Name: uiColors
      Entry: 7
      Data: 0|System.Collections.Generic.Dictionary`2[[Keyveo.FrontEnd.UITag, Assembly-CSharp],[UnityEngine.Color,
        UnityEngine.CoreModule]], mscorlib
    - Name: comparer
      Entry: 7
      Data: 1|System.Collections.Generic.EnumEqualityComparer`1[[Keyveo.FrontEnd.UITag,
        Assembly-CSharp]], mscorlib
    - Name: 
      Entry: 12
      Data: 0
    - Name: 
      Entry: 13
      Data: 
    - Name: 
      Entry: 8
      Data: 
    - Name: 
      Entry: 12
      Data: 7
    - Name: 
      Entry: 7
      Data: 
    - Name: $k
      Entry: 3
      Data: 0
    - Name: $v
      Entry: 7
      Data: UnityEngine.Color, UnityEngine.CoreModule
    - Name: 
      Entry: 4
      Data: 0.21960786
    - Name: 
      Entry: 4
      Data: 0.21960786
    - Name: 
      Entry: 4
      Data: 0.21960786
    - Name: 
      Entry: 4
      Data: 1
    - Name: 
      Entry: 8
      Data: 
    - Name: 
      Entry: 8
      Data: 
    - Name: 
      Entry: 7
      Data: 
    - Name: $k
      Entry: 3
      Data: 1
    - Name: $v
      Entry: 7
      Data: UnityEngine.Color, UnityEngine.CoreModule
    - Name: 
      Entry: 4
      Data: 0.0431372523
    - Name: 
      Entry: 4
      Data: 0.215686277
    - Name: 
      Entry: 4
      Data: 0.0431372523
    - Name: 
      Entry: 4
      Data: 1
    - Name: 
      Entry: 8
      Data: 
    - Name: 
      Entry: 8
      Data: 
    - Name: 
      Entry: 7
      Data: 
    - Name: $k
      Entry: 3
      Data: 2
    - Name: $v
      Entry: 7
      Data: UnityEngine.Color, UnityEngine.CoreModule
    - Name: 
      Entry: 4
      Data: 1
    - Name: 
      Entry: 4
      Data: 1
    - Name: 
      Entry: 4
      Data: 1
    - Name: 
      Entry: 4
      Data: 1
    - Name: 
      Entry: 8
      Data: 
    - Name: 
      Entry: 8
      Data: 
    - Name: 
      Entry: 7
      Data: 
    - Name: $k
      Entry: 3
      Data: 3
    - Name: $v
      Entry: 7
      Data: UnityEngine.Color, UnityEngine.CoreModule
    - Name: 
      Entry: 4
      Data: 0
    - Name: 
      Entry: 4
      Data: 1
    - Name: 
      Entry: 4
      Data: 0
    - Name: 
      Entry: 4
      Data: 1
    - Name: 
      Entry: 8
      Data: 
    - Name: 
      Entry: 8
      Data: 
    - Name: 
      Entry: 7
      Data: 
    - Name: $k
      Entry: 3
      Data: 5
    - Name: $v
      Entry: 7
      Data: UnityEngine.Color, UnityEngine.CoreModule
    - Name: 
      Entry: 4
      Data: 1
    - Name: 
      Entry: 4
      Data: 0
    - Name: 
      Entry: 4
      Data: 0
    - Name: 
      Entry: 4
      Data: 1
    - Name: 
      Entry: 8
      Data: 
    - Name: 
      Entry: 8
      Data: 
    - Name: 
      Entry: 7
      Data: 
    - Name: $k
      Entry: 3
      Data: 6
    - Name: $v
      Entry: 7
      Data: UnityEngine.Color, UnityEngine.CoreModule
    - Name: 
      Entry: 4
      Data: 0
    - Name: 
      Entry: 4
      Data: 0.6509434
    - Name: 
      Entry: 4
      Data: 0
    - Name: 
      Entry: 4
      Data: 1
    - Name: 
      Entry: 8
      Data: 
    - Name: 
      Entry: 8
      Data: 
    - Name: 
      Entry: 7
      Data: 
    - Name: $k
      Entry: 3
      Data: 4
    - Name: $v
      Entry: 7
      Data: UnityEngine.Color, UnityEngine.CoreModule
    - Name: 
      Entry: 4
      Data: 0.0156862773
    - Name: 
      Entry: 4
      Data: 0.3745098
    - Name: 
      Entry: 4
      Data: 0.733333349
    - Name: 
      Entry: 4
      Data: 1
    - Name: 
      Entry: 8
      Data: 
    - Name: 
      Entry: 8
      Data: 
    - Name: 
      Entry: 13
      Data: 
    - Name: 
      Entry: 8
      Data: 
    - Name: textColors
      Entry: 7
      Data: 2|System.Collections.Generic.Dictionary`2[[Keyveo.FrontEnd.TextTag, Assembly-CSharp],[UnityEngine.Color,
        UnityEngine.CoreModule]], mscorlib
    - Name: comparer
      Entry: 7
      Data: 3|System.Collections.Generic.EnumEqualityComparer`1[[Keyveo.FrontEnd.TextTag,
        Assembly-CSharp]], mscorlib
    - Name: 
      Entry: 12
      Data: 0
    - Name: 
      Entry: 13
      Data: 
    - Name: 
      Entry: 8
      Data: 
    - Name: 
      Entry: 12
      Data: 2
    - Name: 
      Entry: 7
      Data: 
    - Name: $k
      Entry: 3
      Data: 0
    - Name: $v
      Entry: 7
      Data: UnityEngine.Color, UnityEngine.CoreModule
    - Name: 
      Entry: 4
      Data: 0.792156935
    - Name: 
      Entry: 4
      Data: 0.792156935
    - Name: 
      Entry: 4
      Data: 0.792156935
    - Name: 
      Entry: 4
      Data: 1
    - Name: 
      Entry: 8
      Data: 
    - Name: 
      Entry: 8
      Data: 
    - Name: 
      Entry: 7
      Data: 
    - Name: $k
      Entry: 3
      Data: 1
    - Name: $v
      Entry: 7
      Data: UnityEngine.Color, UnityEngine.CoreModule
    - Name: 
      Entry: 4
      Data: 0.180392161
    - Name: 
      Entry: 4
      Data: 0.180392161
    - Name: 
      Entry: 4
      Data: 0.180392161
    - Name: 
      Entry: 4
      Data: 1
    - Name: 
      Entry: 8
      Data: 
    - Name: 
      Entry: 8
      Data: 
    - Name: 
      Entry: 13
      Data: 
    - Name: 
      Entry: 8
      Data: 
  font: {fileID: 11400000, guid: d5b168ca7a39e384ca6075da4ade2f5b, type: 2}
  font_noz: {fileID: 11400000, guid: 8754964645b97594d96eab486a443359, type: 2}
  materialColors:
  - m_tag: 0
    m_color: {r: 0.01764706, g: 0.5, b: 0, a: 1}
  - m_tag: 1
    m_color: {r: 0, g: 2.1185474, b: 0.011091871, a: 1}
  - m_tag: 2
    m_color: {r: 0.017641952, g: 0.5028866, b: 0, a: 1}
