%YAML 1.1
%TAG !u! tag:unity3d.com,2011:
--- !u!114 &11400000
MonoBehaviour:
  m_ObjectHideFlags: 0
  m_CorrespondingSourceObject: {fileID: 0}
  m_PrefabInstance: {fileID: 0}
  m_PrefabAsset: {fileID: 0}
  m_GameObject: {fileID: 0}
  m_Enabled: 1
  m_EditorHideFlags: 0
  m_Script: {fileID: 11500000, guid: 263986c19d2cd3b4ab9d8f0502ba3033, type: 3}
  m_Name: S2 - Obtenir un titre de transport.
  m_EditorClassIdentifier: 
  m_description: Obtenir un titre de transport.
  m_successMessage: 
  m_failMessage: 
  m_skipMessage: 
  m_isFirstReaching: 1
  m_results:
    state: 5
    reached: 0
    succeeded: 0
    failed: 0
    skipped: 0
  m_registeredComponent: {fileID: 0}
  objectiveParent: {fileID: 0}
