%YAML 1.1
%TAG !u! tag:unity3d.com,2011:
--- !u!114 &4955929217194538356
MonoBehaviour:
  m_ObjectHideFlags: 0
  m_CorrespondingSourceObject: {fileID: 0}
  m_PrefabInstance: {fileID: 0}
  m_PrefabAsset: {fileID: 0}
  m_GameObject: {fileID: 7053521875176557531}
  m_Enabled: 1
  m_EditorHideFlags: 0
  m_Script: {fileID: 1392445389, guid: f70555f144d8491a825f0804e09c671c, type: 3}
  m_Name: 
  m_EditorClassIdentifier: 
  m_Navigation:
    m_Mode: 3
    m_SelectOnUp: {fileID: 0}
    m_SelectOnDown: {fileID: 0}
    m_SelectOnLeft: {fileID: 0}
    m_SelectOnRight: {fileID: 0}
  m_Transition: 1
  m_Colors:
    m_NormalColor: {r: 1, g: 1, b: 1, a: 1}
    m_HighlightedColor: {r: 0.9607843, g: 0.9607843, b: 0.9607843, a: 1}
    m_PressedColor: {r: 0.78431374, g: 0.78431374, b: 0.78431374, a: 1}
    m_DisabledColor: {r: 0.78431374, g: 0.78431374, b: 0.78431374, a: 0.5019608}
    m_ColorMultiplier: 1
    m_FadeDuration: 0.1
  m_SpriteState:
    m_HighlightedSprite: {fileID: 0}
    m_PressedSprite: {fileID: 0}
    m_DisabledSprite: {fileID: 0}
  m_AnimationTriggers:
    m_NormalTrigger: Normal
    m_HighlightedTrigger: Highlighted
    m_PressedTrigger: Pressed
    m_DisabledTrigger: Disabled
  m_Interactable: 1
  m_TargetGraphic: {fileID: 7053521875176557541}
  m_OnClick:
    m_PersistentCalls:
      m_Calls: []
    m_TypeName: UnityEngine.UI.Button+ButtonClickedEvent, UnityEngine.UI, Version=1.0.0.0,
      Culture=neutral, PublicKeyToken=null
--- !u!1001 &5407924177016769733
PrefabInstance:
  m_ObjectHideFlags: 0
  serializedVersion: 2
  m_Modification:
    m_TransformParent: {fileID: 0}
    m_Modifications:
    - target: {fileID: 3093949462579267358, guid: e55b9e8f99ed6ba4485e55b62db3ff8a,
        type: 3}
      propertyPath: m_Name
      value: PlayerChoiceBox VariantOfPlayerMessageBox
      objectReference: {fileID: 0}
    - target: {fileID: 3093949462579267361, guid: e55b9e8f99ed6ba4485e55b62db3ff8a,
        type: 3}
      propertyPath: m_LocalPosition.x
      value: 0
      objectReference: {fileID: 0}
    - target: {fileID: 3093949462579267361, guid: e55b9e8f99ed6ba4485e55b62db3ff8a,
        type: 3}
      propertyPath: m_LocalPosition.y
      value: 0
      objectReference: {fileID: 0}
    - target: {fileID: 3093949462579267361, guid: e55b9e8f99ed6ba4485e55b62db3ff8a,
        type: 3}
      propertyPath: m_LocalPosition.z
      value: 0
      objectReference: {fileID: 0}
    - target: {fileID: 3093949462579267361, guid: e55b9e8f99ed6ba4485e55b62db3ff8a,
        type: 3}
      propertyPath: m_LocalRotation.x
      value: -0
      objectReference: {fileID: 0}
    - target: {fileID: 3093949462579267361, guid: e55b9e8f99ed6ba4485e55b62db3ff8a,
        type: 3}
      propertyPath: m_LocalRotation.y
      value: -0
      objectReference: {fileID: 0}
    - target: {fileID: 3093949462579267361, guid: e55b9e8f99ed6ba4485e55b62db3ff8a,
        type: 3}
      propertyPath: m_LocalRotation.z
      value: -0
      objectReference: {fileID: 0}
    - target: {fileID: 3093949462579267361, guid: e55b9e8f99ed6ba4485e55b62db3ff8a,
        type: 3}
      propertyPath: m_LocalRotation.w
      value: 1
      objectReference: {fileID: 0}
    - target: {fileID: 3093949462579267361, guid: e55b9e8f99ed6ba4485e55b62db3ff8a,
        type: 3}
      propertyPath: m_RootOrder
      value: 0
      objectReference: {fileID: 0}
    - target: {fileID: 3093949462579267361, guid: e55b9e8f99ed6ba4485e55b62db3ff8a,
        type: 3}
      propertyPath: m_LocalEulerAnglesHint.x
      value: 0
      objectReference: {fileID: 0}
    - target: {fileID: 3093949462579267361, guid: e55b9e8f99ed6ba4485e55b62db3ff8a,
        type: 3}
      propertyPath: m_LocalEulerAnglesHint.y
      value: 0
      objectReference: {fileID: 0}
    - target: {fileID: 3093949462579267361, guid: e55b9e8f99ed6ba4485e55b62db3ff8a,
        type: 3}
      propertyPath: m_LocalEulerAnglesHint.z
      value: 0
      objectReference: {fileID: 0}
    - target: {fileID: 3093949462579267361, guid: e55b9e8f99ed6ba4485e55b62db3ff8a,
        type: 3}
      propertyPath: m_AnchoredPosition.x
      value: 0
      objectReference: {fileID: 0}
    - target: {fileID: 3093949462579267361, guid: e55b9e8f99ed6ba4485e55b62db3ff8a,
        type: 3}
      propertyPath: m_AnchoredPosition.y
      value: 0
      objectReference: {fileID: 0}
    - target: {fileID: 3093949462579267361, guid: e55b9e8f99ed6ba4485e55b62db3ff8a,
        type: 3}
      propertyPath: m_SizeDelta.x
      value: 551
      objectReference: {fileID: 0}
    - target: {fileID: 3093949462579267361, guid: e55b9e8f99ed6ba4485e55b62db3ff8a,
        type: 3}
      propertyPath: m_SizeDelta.y
      value: 0
      objectReference: {fileID: 0}
    - target: {fileID: 3093949462579267361, guid: e55b9e8f99ed6ba4485e55b62db3ff8a,
        type: 3}
      propertyPath: m_AnchorMin.x
      value: 0
      objectReference: {fileID: 0}
    - target: {fileID: 3093949462579267361, guid: e55b9e8f99ed6ba4485e55b62db3ff8a,
        type: 3}
      propertyPath: m_AnchorMin.y
      value: 0
      objectReference: {fileID: 0}
    - target: {fileID: 3093949462579267361, guid: e55b9e8f99ed6ba4485e55b62db3ff8a,
        type: 3}
      propertyPath: m_AnchorMax.x
      value: 0
      objectReference: {fileID: 0}
    - target: {fileID: 3093949462579267361, guid: e55b9e8f99ed6ba4485e55b62db3ff8a,
        type: 3}
      propertyPath: m_AnchorMax.y
      value: 0
      objectReference: {fileID: 0}
    - target: {fileID: 3093949462579267361, guid: e55b9e8f99ed6ba4485e55b62db3ff8a,
        type: 3}
      propertyPath: m_Pivot.x
      value: 0
      objectReference: {fileID: 0}
    - target: {fileID: 3093949462579267361, guid: e55b9e8f99ed6ba4485e55b62db3ff8a,
        type: 3}
      propertyPath: m_Pivot.y
      value: 0
      objectReference: {fileID: 0}
    - target: {fileID: 3093949462579267360, guid: e55b9e8f99ed6ba4485e55b62db3ff8a,
        type: 3}
      propertyPath: m_Color.r
      value: 1
      objectReference: {fileID: 0}
    - target: {fileID: 3093949462579267360, guid: e55b9e8f99ed6ba4485e55b62db3ff8a,
        type: 3}
      propertyPath: m_Color.g
      value: 1
      objectReference: {fileID: 0}
    - target: {fileID: 3093949462579267360, guid: e55b9e8f99ed6ba4485e55b62db3ff8a,
        type: 3}
      propertyPath: m_Color.b
      value: 1
      objectReference: {fileID: 0}
    - target: {fileID: 7345688654572505669, guid: e55b9e8f99ed6ba4485e55b62db3ff8a,
        type: 3}
      propertyPath: m_Padding.m_Left
      value: 100
      objectReference: {fileID: 0}
    - target: {fileID: 9120460928465301028, guid: e55b9e8f99ed6ba4485e55b62db3ff8a,
        type: 3}
      propertyPath: m_AnchorMin.y
      value: 0
      objectReference: {fileID: 0}
    - target: {fileID: 9120460928465301028, guid: e55b9e8f99ed6ba4485e55b62db3ff8a,
        type: 3}
      propertyPath: m_AnchorMax.y
      value: 0
      objectReference: {fileID: 0}
    - target: {fileID: 9120460928465301028, guid: e55b9e8f99ed6ba4485e55b62db3ff8a,
        type: 3}
      propertyPath: m_AnchoredPosition.y
      value: 0
      objectReference: {fileID: 0}
    - target: {fileID: 9120460928465301028, guid: e55b9e8f99ed6ba4485e55b62db3ff8a,
        type: 3}
      propertyPath: m_SizeDelta.y
      value: 0
      objectReference: {fileID: 0}
    - target: {fileID: 9120460928465301028, guid: e55b9e8f99ed6ba4485e55b62db3ff8a,
        type: 3}
      propertyPath: m_AnchoredPosition.x
      value: 100
      objectReference: {fileID: 0}
    - target: {fileID: 1697271766481827110, guid: e55b9e8f99ed6ba4485e55b62db3ff8a,
        type: 3}
      propertyPath: m_AnchorMin.y
      value: 0
      objectReference: {fileID: 0}
    - target: {fileID: 1697271766481827110, guid: e55b9e8f99ed6ba4485e55b62db3ff8a,
        type: 3}
      propertyPath: m_AnchorMax.y
      value: 0
      objectReference: {fileID: 0}
    - target: {fileID: 1697271766481827110, guid: e55b9e8f99ed6ba4485e55b62db3ff8a,
        type: 3}
      propertyPath: m_AnchoredPosition.y
      value: 0
      objectReference: {fileID: 0}
    - target: {fileID: 1697271766481827110, guid: e55b9e8f99ed6ba4485e55b62db3ff8a,
        type: 3}
      propertyPath: m_AnchoredPosition.x
      value: 0
      objectReference: {fileID: 0}
    - target: {fileID: 3093949462909894655, guid: e55b9e8f99ed6ba4485e55b62db3ff8a,
        type: 3}
      propertyPath: m_AnchorMin.y
      value: 0
      objectReference: {fileID: 0}
    - target: {fileID: 3093949462909894655, guid: e55b9e8f99ed6ba4485e55b62db3ff8a,
        type: 3}
      propertyPath: m_AnchorMax.y
      value: 0
      objectReference: {fileID: 0}
    - target: {fileID: 3093949462909894655, guid: e55b9e8f99ed6ba4485e55b62db3ff8a,
        type: 3}
      propertyPath: m_AnchoredPosition.x
      value: 270.5
      objectReference: {fileID: 0}
    - target: {fileID: 3093949462909894655, guid: e55b9e8f99ed6ba4485e55b62db3ff8a,
        type: 3}
      propertyPath: m_AnchoredPosition.y
      value: 0
      objectReference: {fileID: 0}
    - target: {fileID: 3093949462909894655, guid: e55b9e8f99ed6ba4485e55b62db3ff8a,
        type: 3}
      propertyPath: m_SizeDelta.y
      value: 0
      objectReference: {fileID: 0}
    - target: {fileID: 1609029164478353369, guid: e55b9e8f99ed6ba4485e55b62db3ff8a,
        type: 3}
      propertyPath: m_Color.r
      value: 1
      objectReference: {fileID: 0}
    - target: {fileID: 1609029164478353369, guid: e55b9e8f99ed6ba4485e55b62db3ff8a,
        type: 3}
      propertyPath: m_Color.g
      value: 1
      objectReference: {fileID: 0}
    - target: {fileID: 1609029164478353369, guid: e55b9e8f99ed6ba4485e55b62db3ff8a,
        type: 3}
      propertyPath: m_Color.b
      value: 1
      objectReference: {fileID: 0}
    - target: {fileID: 7983451513870516549, guid: e55b9e8f99ed6ba4485e55b62db3ff8a,
        type: 3}
      propertyPath: m_tagType
      value: 1
      objectReference: {fileID: 0}
    - target: {fileID: 7983451513870516549, guid: e55b9e8f99ed6ba4485e55b62db3ff8a,
        type: 3}
      propertyPath: m_uiTag
      value: 0
      objectReference: {fileID: 0}
    - target: {fileID: 3093949463016866535, guid: e55b9e8f99ed6ba4485e55b62db3ff8a,
        type: 3}
      propertyPath: m_AnchorMin.y
      value: 0
      objectReference: {fileID: 0}
    - target: {fileID: 3093949463016866535, guid: e55b9e8f99ed6ba4485e55b62db3ff8a,
        type: 3}
      propertyPath: m_AnchorMax.y
      value: 0
      objectReference: {fileID: 0}
    - target: {fileID: 3093949463016866535, guid: e55b9e8f99ed6ba4485e55b62db3ff8a,
        type: 3}
      propertyPath: m_AnchoredPosition.x
      value: 0
      objectReference: {fileID: 0}
    - target: {fileID: 3093949463016866535, guid: e55b9e8f99ed6ba4485e55b62db3ff8a,
        type: 3}
      propertyPath: m_AnchoredPosition.y
      value: 0
      objectReference: {fileID: 0}
    - target: {fileID: 3093949463016866535, guid: e55b9e8f99ed6ba4485e55b62db3ff8a,
        type: 3}
      propertyPath: m_SizeDelta.y
      value: 0
      objectReference: {fileID: 0}
    - target: {fileID: 3093949462909894654, guid: e55b9e8f99ed6ba4485e55b62db3ff8a,
        type: 3}
      propertyPath: m_Color.r
      value: 0.18431373
      objectReference: {fileID: 0}
    - target: {fileID: 3093949462909894654, guid: e55b9e8f99ed6ba4485e55b62db3ff8a,
        type: 3}
      propertyPath: m_Color.g
      value: 0.6117647
      objectReference: {fileID: 0}
    - target: {fileID: 3093949462909894654, guid: e55b9e8f99ed6ba4485e55b62db3ff8a,
        type: 3}
      propertyPath: m_Color.b
      value: 0.5882353
      objectReference: {fileID: 0}
    - target: {fileID: 9119966617830956598, guid: e55b9e8f99ed6ba4485e55b62db3ff8a,
        type: 3}
      propertyPath: m_uiTag
      value: 3
      objectReference: {fileID: 0}
    - target: {fileID: 4483964990193367170, guid: e55b9e8f99ed6ba4485e55b62db3ff8a,
        type: 3}
      propertyPath: m_Color.r
      value: 1
      objectReference: {fileID: 0}
    - target: {fileID: 4483964990193367170, guid: e55b9e8f99ed6ba4485e55b62db3ff8a,
        type: 3}
      propertyPath: m_Color.g
      value: 1
      objectReference: {fileID: 0}
    - target: {fileID: 4483964990193367170, guid: e55b9e8f99ed6ba4485e55b62db3ff8a,
        type: 3}
      propertyPath: m_Color.b
      value: 1
      objectReference: {fileID: 0}
    - target: {fileID: 696759616060769338, guid: e55b9e8f99ed6ba4485e55b62db3ff8a,
        type: 3}
      propertyPath: m_uiTag
      value: 0
      objectReference: {fileID: 0}
    - target: {fileID: 3093949463016866534, guid: e55b9e8f99ed6ba4485e55b62db3ff8a,
        type: 3}
      propertyPath: m_havePropertiesChanged
      value: 0
      objectReference: {fileID: 0}
    - target: {fileID: 3093949463016866534, guid: e55b9e8f99ed6ba4485e55b62db3ff8a,
        type: 3}
      propertyPath: m_isInputParsingRequired
      value: 0
      objectReference: {fileID: 0}
    - target: {fileID: 3093949463016866534, guid: e55b9e8f99ed6ba4485e55b62db3ff8a,
        type: 3}
      propertyPath: m_text
      value: aze azeaze azeaze azeaze aze
      objectReference: {fileID: 0}
    - target: {fileID: 3093949463016866534, guid: e55b9e8f99ed6ba4485e55b62db3ff8a,
        type: 3}
      propertyPath: m_textInfo.characterCount
      value: 28
      objectReference: {fileID: 0}
    - target: {fileID: 3093949463016866534, guid: e55b9e8f99ed6ba4485e55b62db3ff8a,
        type: 3}
      propertyPath: m_textInfo.spaceCount
      value: 4
      objectReference: {fileID: 0}
    - target: {fileID: 3093949463016866534, guid: e55b9e8f99ed6ba4485e55b62db3ff8a,
        type: 3}
      propertyPath: m_textInfo.wordCount
      value: 5
      objectReference: {fileID: 0}
    - target: {fileID: 3093949463016866534, guid: e55b9e8f99ed6ba4485e55b62db3ff8a,
        type: 3}
      propertyPath: m_textInfo.lineCount
      value: 1
      objectReference: {fileID: 0}
    - target: {fileID: 3093949463016866534, guid: e55b9e8f99ed6ba4485e55b62db3ff8a,
        type: 3}
      propertyPath: m_fontColor32.rgba
      value: 4294967295
      objectReference: {fileID: 0}
    - target: {fileID: 3093949463016866534, guid: e55b9e8f99ed6ba4485e55b62db3ff8a,
        type: 3}
      propertyPath: m_fontColor.r
      value: 1
      objectReference: {fileID: 0}
    - target: {fileID: 3093949463016866534, guid: e55b9e8f99ed6ba4485e55b62db3ff8a,
        type: 3}
      propertyPath: m_fontColor.g
      value: 1
      objectReference: {fileID: 0}
    - target: {fileID: 3093949463016866534, guid: e55b9e8f99ed6ba4485e55b62db3ff8a,
        type: 3}
      propertyPath: m_fontColor.b
      value: 1
      objectReference: {fileID: 0}
    - target: {fileID: 8089327455716744131, guid: e55b9e8f99ed6ba4485e55b62db3ff8a,
        type: 3}
      propertyPath: m_textTag
      value: 2
      objectReference: {fileID: 0}
    - target: {fileID: 8778413135495542591, guid: e55b9e8f99ed6ba4485e55b62db3ff8a,
        type: 3}
      propertyPath: m_AnchorMin.y
      value: 0
      objectReference: {fileID: 0}
    - target: {fileID: 8778413135495542591, guid: e55b9e8f99ed6ba4485e55b62db3ff8a,
        type: 3}
      propertyPath: m_AnchorMax.y
      value: 0
      objectReference: {fileID: 0}
    - target: {fileID: 8778413135495542591, guid: e55b9e8f99ed6ba4485e55b62db3ff8a,
        type: 3}
      propertyPath: m_AnchoredPosition.x
      value: 0
      objectReference: {fileID: 0}
    - target: {fileID: 8778413135495542591, guid: e55b9e8f99ed6ba4485e55b62db3ff8a,
        type: 3}
      propertyPath: m_AnchoredPosition.y
      value: 0
      objectReference: {fileID: 0}
    m_RemovedComponents: []
  m_SourcePrefab: {fileID: 100100000, guid: e55b9e8f99ed6ba4485e55b62db3ff8a, type: 3}
--- !u!1 &7053521875176557531 stripped
GameObject:
  m_CorrespondingSourceObject: {fileID: 3093949462579267358, guid: e55b9e8f99ed6ba4485e55b62db3ff8a,
    type: 3}
  m_PrefabInstance: {fileID: 5407924177016769733}
  m_PrefabAsset: {fileID: 0}
--- !u!114 &7053521875176557541 stripped
MonoBehaviour:
  m_CorrespondingSourceObject: {fileID: 3093949462579267360, guid: e55b9e8f99ed6ba4485e55b62db3ff8a,
    type: 3}
  m_PrefabInstance: {fileID: 5407924177016769733}
  m_PrefabAsset: {fileID: 0}
  m_GameObject: {fileID: 7053521875176557531}
  m_Enabled: 0
  m_EditorHideFlags: 0
  m_Script: {fileID: -765806418, guid: f70555f144d8491a825f0804e09c671c, type: 3}
  m_Name: 
  m_EditorClassIdentifier: 
