%YAML 1.1
%TAG !u! tag:unity3d.com,2011:
--- !u!1001 &4891981223452967216
PrefabInstance:
  m_ObjectHideFlags: 0
  serializedVersion: 2
  m_Modification:
    m_TransformParent: {fileID: 0}
    m_Modifications:
    - target: {fileID: 7569466460843001390, guid: 89da1a42dbf72c14aaea8e061cdf3c19,
        type: 3}
      propertyPath: m_Name
      value: PlayerMessageBox VariantOfNPCMessageBox
      objectReference: {fileID: 0}
    - target: {fileID: 7569466460843001361, guid: 89da1a42dbf72c14aaea8e061cdf3c19,
        type: 3}
      propertyPath: m_LocalPosition.x
      value: 0
      objectReference: {fileID: 0}
    - target: {fileID: 7569466460843001361, guid: 89da1a42dbf72c14aaea8e061cdf3c19,
        type: 3}
      propertyPath: m_LocalPosition.y
      value: 0
      objectReference: {fileID: 0}
    - target: {fileID: 7569466460843001361, guid: 89da1a42dbf72c14aaea8e061cdf3c19,
        type: 3}
      propertyPath: m_LocalPosition.z
      value: 0
      objectReference: {fileID: 0}
    - target: {fileID: 7569466460843001361, guid: 89da1a42dbf72c14aaea8e061cdf3c19,
        type: 3}
      propertyPath: m_LocalRotation.x
      value: -0
      objectReference: {fileID: 0}
    - target: {fileID: 7569466460843001361, guid: 89da1a42dbf72c14aaea8e061cdf3c19,
        type: 3}
      propertyPath: m_LocalRotation.y
      value: -0
      objectReference: {fileID: 0}
    - target: {fileID: 7569466460843001361, guid: 89da1a42dbf72c14aaea8e061cdf3c19,
        type: 3}
      propertyPath: m_LocalRotation.z
      value: -0
      objectReference: {fileID: 0}
    - target: {fileID: 7569466460843001361, guid: 89da1a42dbf72c14aaea8e061cdf3c19,
        type: 3}
      propertyPath: m_LocalRotation.w
      value: 1
      objectReference: {fileID: 0}
    - target: {fileID: 7569466460843001361, guid: 89da1a42dbf72c14aaea8e061cdf3c19,
        type: 3}
      propertyPath: m_RootOrder
      value: 0
      objectReference: {fileID: 0}
    - target: {fileID: 7569466460843001361, guid: 89da1a42dbf72c14aaea8e061cdf3c19,
        type: 3}
      propertyPath: m_LocalEulerAnglesHint.x
      value: 0
      objectReference: {fileID: 0}
    - target: {fileID: 7569466460843001361, guid: 89da1a42dbf72c14aaea8e061cdf3c19,
        type: 3}
      propertyPath: m_LocalEulerAnglesHint.y
      value: 0
      objectReference: {fileID: 0}
    - target: {fileID: 7569466460843001361, guid: 89da1a42dbf72c14aaea8e061cdf3c19,
        type: 3}
      propertyPath: m_LocalEulerAnglesHint.z
      value: 0
      objectReference: {fileID: 0}
    - target: {fileID: 7569466460843001361, guid: 89da1a42dbf72c14aaea8e061cdf3c19,
        type: 3}
      propertyPath: m_AnchoredPosition.x
      value: 0
      objectReference: {fileID: 0}
    - target: {fileID: 7569466460843001361, guid: 89da1a42dbf72c14aaea8e061cdf3c19,
        type: 3}
      propertyPath: m_AnchoredPosition.y
      value: 0
      objectReference: {fileID: 0}
    - target: {fileID: 7569466460843001361, guid: 89da1a42dbf72c14aaea8e061cdf3c19,
        type: 3}
      propertyPath: m_SizeDelta.x
      value: 551
      objectReference: {fileID: 0}
    - target: {fileID: 7569466460843001361, guid: 89da1a42dbf72c14aaea8e061cdf3c19,
        type: 3}
      propertyPath: m_SizeDelta.y
      value: 0
      objectReference: {fileID: 0}
    - target: {fileID: 7569466460843001361, guid: 89da1a42dbf72c14aaea8e061cdf3c19,
        type: 3}
      propertyPath: m_AnchorMin.x
      value: 0
      objectReference: {fileID: 0}
    - target: {fileID: 7569466460843001361, guid: 89da1a42dbf72c14aaea8e061cdf3c19,
        type: 3}
      propertyPath: m_AnchorMin.y
      value: 0
      objectReference: {fileID: 0}
    - target: {fileID: 7569466460843001361, guid: 89da1a42dbf72c14aaea8e061cdf3c19,
        type: 3}
      propertyPath: m_AnchorMax.x
      value: 0
      objectReference: {fileID: 0}
    - target: {fileID: 7569466460843001361, guid: 89da1a42dbf72c14aaea8e061cdf3c19,
        type: 3}
      propertyPath: m_AnchorMax.y
      value: 0
      objectReference: {fileID: 0}
    - target: {fileID: 7569466460843001361, guid: 89da1a42dbf72c14aaea8e061cdf3c19,
        type: 3}
      propertyPath: m_Pivot.x
      value: 0
      objectReference: {fileID: 0}
    - target: {fileID: 7569466460843001361, guid: 89da1a42dbf72c14aaea8e061cdf3c19,
        type: 3}
      propertyPath: m_Pivot.y
      value: 0
      objectReference: {fileID: 0}
    - target: {fileID: 2743518909069183861, guid: 89da1a42dbf72c14aaea8e061cdf3c19,
        type: 3}
      propertyPath: m_ChildAlignment
      value: 6
      objectReference: {fileID: 0}
    - target: {fileID: 4427511106043080468, guid: 89da1a42dbf72c14aaea8e061cdf3c19,
        type: 3}
      propertyPath: m_AnchoredPosition.x
      value: 0
      objectReference: {fileID: 0}
    - target: {fileID: 4427511106043080468, guid: 89da1a42dbf72c14aaea8e061cdf3c19,
        type: 3}
      propertyPath: m_AnchorMin.y
      value: 1
      objectReference: {fileID: 0}
    - target: {fileID: 4427511106043080468, guid: 89da1a42dbf72c14aaea8e061cdf3c19,
        type: 3}
      propertyPath: m_AnchorMax.y
      value: 1
      objectReference: {fileID: 0}
    - target: {fileID: 4427511106043080468, guid: 89da1a42dbf72c14aaea8e061cdf3c19,
        type: 3}
      propertyPath: m_AnchoredPosition.y
      value: -20
      objectReference: {fileID: 0}
    - target: {fileID: 4427511106043080468, guid: 89da1a42dbf72c14aaea8e061cdf3c19,
        type: 3}
      propertyPath: m_SizeDelta.y
      value: 0
      objectReference: {fileID: 0}
    - target: {fileID: 4427511106043080468, guid: 89da1a42dbf72c14aaea8e061cdf3c19,
        type: 3}
      propertyPath: m_Pivot.x
      value: 0
      objectReference: {fileID: 0}
    - target: {fileID: 6083840472738526230, guid: 89da1a42dbf72c14aaea8e061cdf3c19,
        type: 3}
      propertyPath: m_AnchorMin.y
      value: 0
      objectReference: {fileID: 0}
    - target: {fileID: 6083840472738526230, guid: 89da1a42dbf72c14aaea8e061cdf3c19,
        type: 3}
      propertyPath: m_AnchorMax.y
      value: 0
      objectReference: {fileID: 0}
    - target: {fileID: 6083840472738526230, guid: 89da1a42dbf72c14aaea8e061cdf3c19,
        type: 3}
      propertyPath: m_AnchoredPosition.y
      value: 0
      objectReference: {fileID: 0}
    - target: {fileID: 6083840472738526230, guid: 89da1a42dbf72c14aaea8e061cdf3c19,
        type: 3}
      propertyPath: m_AnchoredPosition.x
      value: 0
      objectReference: {fileID: 0}
    - target: {fileID: 7569466460511846095, guid: 89da1a42dbf72c14aaea8e061cdf3c19,
        type: 3}
      propertyPath: m_AnchoredPosition.x
      value: 270.5
      objectReference: {fileID: 0}
    - target: {fileID: 7569466460511846095, guid: 89da1a42dbf72c14aaea8e061cdf3c19,
        type: 3}
      propertyPath: m_AnchorMin.y
      value: 1
      objectReference: {fileID: 0}
    - target: {fileID: 7569466460511846095, guid: 89da1a42dbf72c14aaea8e061cdf3c19,
        type: 3}
      propertyPath: m_AnchorMax.y
      value: 1
      objectReference: {fileID: 0}
    - target: {fileID: 7569466460511846095, guid: 89da1a42dbf72c14aaea8e061cdf3c19,
        type: 3}
      propertyPath: m_AnchoredPosition.y
      value: -63.59
      objectReference: {fileID: 0}
    - target: {fileID: 7569466460511846095, guid: 89da1a42dbf72c14aaea8e061cdf3c19,
        type: 3}
      propertyPath: m_SizeDelta.y
      value: 0
      objectReference: {fileID: 0}
    - target: {fileID: 1991908516413192478, guid: 89da1a42dbf72c14aaea8e061cdf3c19,
        type: 3}
      propertyPath: m_LocalScale.x
      value: -1
      objectReference: {fileID: 0}
    - target: {fileID: 1991908516413192478, guid: 89da1a42dbf72c14aaea8e061cdf3c19,
        type: 3}
      propertyPath: m_AnchoredPosition.x
      value: 551
      objectReference: {fileID: 0}
    - target: {fileID: 6176586287822294761, guid: 89da1a42dbf72c14aaea8e061cdf3c19,
        type: 3}
      propertyPath: m_Color.r
      value: 1
      objectReference: {fileID: 0}
    - target: {fileID: 6176586287822294761, guid: 89da1a42dbf72c14aaea8e061cdf3c19,
        type: 3}
      propertyPath: m_Color.g
      value: 1
      objectReference: {fileID: 0}
    - target: {fileID: 6176586287822294761, guid: 89da1a42dbf72c14aaea8e061cdf3c19,
        type: 3}
      propertyPath: m_Color.b
      value: 1
      objectReference: {fileID: 0}
    - target: {fileID: 3254173825897922677, guid: 89da1a42dbf72c14aaea8e061cdf3c19,
        type: 3}
      propertyPath: m_uiTag
      value: 0
      objectReference: {fileID: 0}
    - target: {fileID: 7569466460409037783, guid: 89da1a42dbf72c14aaea8e061cdf3c19,
        type: 3}
      propertyPath: m_AnchorMin.y
      value: 0
      objectReference: {fileID: 0}
    - target: {fileID: 7569466460409037783, guid: 89da1a42dbf72c14aaea8e061cdf3c19,
        type: 3}
      propertyPath: m_AnchorMax.y
      value: 0
      objectReference: {fileID: 0}
    - target: {fileID: 7569466460409037783, guid: 89da1a42dbf72c14aaea8e061cdf3c19,
        type: 3}
      propertyPath: m_AnchoredPosition.x
      value: 0
      objectReference: {fileID: 0}
    - target: {fileID: 7569466460409037783, guid: 89da1a42dbf72c14aaea8e061cdf3c19,
        type: 3}
      propertyPath: m_AnchoredPosition.y
      value: 0
      objectReference: {fileID: 0}
    - target: {fileID: 7569466460409037783, guid: 89da1a42dbf72c14aaea8e061cdf3c19,
        type: 3}
      propertyPath: m_SizeDelta.y
      value: 0
      objectReference: {fileID: 0}
    - target: {fileID: 9068544745982720434, guid: 89da1a42dbf72c14aaea8e061cdf3c19,
        type: 3}
      propertyPath: m_Color.r
      value: 1
      objectReference: {fileID: 0}
    - target: {fileID: 9068544745982720434, guid: 89da1a42dbf72c14aaea8e061cdf3c19,
        type: 3}
      propertyPath: m_Color.g
      value: 1
      objectReference: {fileID: 0}
    - target: {fileID: 9068544745982720434, guid: 89da1a42dbf72c14aaea8e061cdf3c19,
        type: 3}
      propertyPath: m_Color.b
      value: 1
      objectReference: {fileID: 0}
    - target: {fileID: 5352717466921878794, guid: 89da1a42dbf72c14aaea8e061cdf3c19,
        type: 3}
      propertyPath: m_uiTag
      value: 0
      objectReference: {fileID: 0}
    - target: {fileID: 7569466460511846094, guid: 89da1a42dbf72c14aaea8e061cdf3c19,
        type: 3}
      propertyPath: m_Color.r
      value: 0.18431373
      objectReference: {fileID: 0}
    - target: {fileID: 7569466460511846094, guid: 89da1a42dbf72c14aaea8e061cdf3c19,
        type: 3}
      propertyPath: m_Color.g
      value: 0.6117647
      objectReference: {fileID: 0}
    - target: {fileID: 7569466460511846094, guid: 89da1a42dbf72c14aaea8e061cdf3c19,
        type: 3}
      propertyPath: m_Color.b
      value: 0.5882353
      objectReference: {fileID: 0}
    - target: {fileID: 4428004153963814662, guid: 89da1a42dbf72c14aaea8e061cdf3c19,
        type: 3}
      propertyPath: m_uiTag
      value: 3
      objectReference: {fileID: 0}
    - target: {fileID: 7569466460409037782, guid: 89da1a42dbf72c14aaea8e061cdf3c19,
        type: 3}
      propertyPath: m_havePropertiesChanged
      value: 0
      objectReference: {fileID: 0}
    - target: {fileID: 7569466460409037782, guid: 89da1a42dbf72c14aaea8e061cdf3c19,
        type: 3}
      propertyPath: m_isInputParsingRequired
      value: 0
      objectReference: {fileID: 0}
    - target: {fileID: 7569466460409037782, guid: 89da1a42dbf72c14aaea8e061cdf3c19,
        type: 3}
      propertyPath: m_text
      value: 'aze azeaze azeaze azeaze azeaze azeaze azeaze kjhzea '
      objectReference: {fileID: 0}
    - target: {fileID: 7569466460409037782, guid: 89da1a42dbf72c14aaea8e061cdf3c19,
        type: 3}
      propertyPath: m_textInfo.characterCount
      value: 53
      objectReference: {fileID: 0}
    - target: {fileID: 7569466460409037782, guid: 89da1a42dbf72c14aaea8e061cdf3c19,
        type: 3}
      propertyPath: m_textInfo.spaceCount
      value: 8
      objectReference: {fileID: 0}
    - target: {fileID: 7569466460409037782, guid: 89da1a42dbf72c14aaea8e061cdf3c19,
        type: 3}
      propertyPath: m_textInfo.wordCount
      value: 8
      objectReference: {fileID: 0}
    - target: {fileID: 7569466460409037782, guid: 89da1a42dbf72c14aaea8e061cdf3c19,
        type: 3}
      propertyPath: m_textInfo.lineCount
      value: 2
      objectReference: {fileID: 0}
    - target: {fileID: 7569466460409037782, guid: 89da1a42dbf72c14aaea8e061cdf3c19,
        type: 3}
      propertyPath: m_fontColor32.rgba
      value: 4294967295
      objectReference: {fileID: 0}
    - target: {fileID: 7569466460409037782, guid: 89da1a42dbf72c14aaea8e061cdf3c19,
        type: 3}
      propertyPath: m_fontColor.r
      value: 1
      objectReference: {fileID: 0}
    - target: {fileID: 7569466460409037782, guid: 89da1a42dbf72c14aaea8e061cdf3c19,
        type: 3}
      propertyPath: m_fontColor.g
      value: 1
      objectReference: {fileID: 0}
    - target: {fileID: 7569466460409037782, guid: 89da1a42dbf72c14aaea8e061cdf3c19,
        type: 3}
      propertyPath: m_fontColor.b
      value: 1
      objectReference: {fileID: 0}
    - target: {fileID: 3720218993362213619, guid: 89da1a42dbf72c14aaea8e061cdf3c19,
        type: 3}
      propertyPath: m_textTag
      value: 2
      objectReference: {fileID: 0}
    m_RemovedComponents: []
  m_SourcePrefab: {fileID: 100100000, guid: 89da1a42dbf72c14aaea8e061cdf3c19, type: 3}
